<?xml version="1.0" standalone="no"?>
<!DOCTYPE svg PUBLIC "-//W3C//DTD SVG 20010904//EN"
 "http://www.w3.org/TR/2001/REC-SVG-20010904/DTD/svg10.dtd">
<svg version="1.0" xmlns="http://www.w3.org/2000/svg"
 width="700.000000pt" height="700.000000pt" viewBox="0 0 700.000000 700.000000"
 preserveAspectRatio="xMidYMid meet">
<metadata>
Created by potrace 1.11, written by Peter Selinger 2001-2013
</metadata>
<g transform="translate(0.000000,700.000000) scale(0.100000,-0.100000)"
fill="#000000" stroke="none">
<path d="M830 6981 c-244 -50 -413 -150 -594 -350 -54 -60 -115 -164 -170
-292 -9 -20 -26 -77 -38 -125 l-23 -89 0 -2630 0 -2630 27 -97 c106 -384 405
-666 793 -748 87 -18 174 -19 2695 -17 1433 1 2619 6 2635 10 17 4 48 12 70
18 219 54 427 192 564 373 99 131 157 259 191 425 19 94 20 145 19 2671 -1
2793 2 2640 -55 2809 -79 232 -252 440 -464 559 -60 34 -190 88 -230 96 -14 2
-56 11 -95 20 -62 13 -367 15 -2655 15 -2422 -1 -2590 -2 -2670 -18z"/>
</g>
</svg>
